/* XPM */
static char *_fr9f_bero0[] = {
/* columns rows colors chars-per-pixel */
"64 64 26 1 ",
"  c gray11",
". c #382C14",
"X c #202020",
"o c #282828",
"O c #2C2C2C",
"+ c gray19",
"@ c #343434",
"# c gray22",
"$ c #403018",
"% c #483818",
"& c #543C1C",
"* c #5C4020",
"= c #6C4824",
"- c #744C28",
"; c gray25",
": c #484848",
"> c #4C4C4C",
", c gray33",
"< c gray36",
"1 c #646464",
"2 c gray44",
"3 c #7C7C7C",
"4 c #80502C",
"5 c gray55",
"6 c #989898",
"7 c gray66",
/* pixels */
"333%&**-**************&$%****&&%,1332222OOOOOOO:12,1,,>>>>,<<123",
"322,%&*-*******&******&$%***&%%,13323233:OOOOO:12,1,>>,,<1111112",
"2221,%&=********&&****&$%*&&%:,11:****:11:OOO:12,1,>,<1111111111",
",2321,%=********&&****%$%&%%,13:**%%$%$%11:::12,111111<,,>>>>>>>",
">,2231%=*************&%$%%,133:*%%%%$%$%:31112,1<<<<<<<<<<<<<<<<",
">>,222%&*****&******&$$%,1331**%%%%%$%$$.1572,1,>>>>>>>>>>>>>>>>",
">>>,23,%&**********&$$:,133:*%%%%%%%$$%..173,1,>>>>>:>>>>>>>>>>>",
">>>>,23,%&*******&&$%,1131**%%%%%%%%$$%..1631,>>>>>>>>>>>>>>>>>>",
">>>>:,31,%&****&&$$,1133:*&%%%%%%$%%$.%..161,>>>>:>>>>>>>>>:>>>>",
">>>>::331,%&&&&$$,13331**&%%%%%%%$%%$.$..151,>>>:>>>>>>>>>>>>>>>",
">>>>::3231,$$$$:,1331:*&&%%%%%%%%%%%%.$.;151<>:>>>:>>>>>>>>>>>>>",
">>>>::22331,,,,,1331**&%%%&%%%%%%.%%%...>231<>>>:>>>>>>::>>>>>>:",
">>>>:#221,,,1266521*&&%&&%%%%%%%%.%%%...,251,>>>>>>>>>>::>::::>>",
">>>:#131,,,,:16551*%&&%&&%%%%%%%%.%%%...1231,>>>>>>>>>>>>>::::>>",
">>:#132,,,,,::253*&%*%%%%%%%%%%%%.%%%..;1331,>>>>>>>>>>>>>::::>>",
">:#1331,,,,,:::1,*%*&%%%%%%%%%%%$.%%%..>2331,>>>>>>>>>>>>>::::>:",
":#13321,,,,,;>,:1*%*%%&%%%%%%%%%$.%%$..,333,>>>>>>>>>>>>>>>>>>:#",
"#11::12,,,,>;,,11*%&%%%%%%%%%%%%..%%$..1=*1,>>>>>>>>:>>>>>>>>:#;",
"11:&&:11,,,;;,,,2*&&%%%%%%%%%%%%.$%$.$<=**,1;>>>>>>>>>>>>>>:;#;;",
"1:&*%&:3:,;;;,,,11&&%%%%%%%%%%%$.$..$1=***%11;:>>>>>>>>>:;#@@#;1",
":&*%%%$12:;,;,,,:3:&%%%%%%%%%%$....>13%%%%%221;;;:::::;;#@#;#,11",
"&*%%%%$:31:,;,,,:21$%%%%%%%%%%....>133311115511;#@@@@@@@#;;#,13:",
"*%%%%%$$12:,;,,,#13:%%%%%%%%%...;<1,,,,,,,356621,#;;;;;;;;#,13:&",
"%%%&%%$%131:;,,>#131$%%%%%%%..;,11,:;#;;;;,366531,#;;;;;##,13:&*",
"%%%%%%$%:331;,>:#133:.$%%%$..,131,:;;##;;;;,355231,######,131&*%",
"%%%%%%$%$132#:::#2231.......;131,:;;;#;#;;#;232,,31,####,131:*%%",
"%&&%%%.%$,231###23333:....;><3,,:;::;#;#;;#:121::,31,,,,131:&%%%",
"%&&%%%.%$:3521123,==,1::><<33,,:;;::;#;;#;@,12,:::,3335532:&%%%%",
"%%%&%%.%$:325221==****111232,,:;;;;;;@;;##+,11:::::1355321&%%%%%",
"%%%%%$.%$:32222=******&3322,,:;;;:;;;@;;##:12,,::::,1221<,&%%&&&",
"%%%%%$$%$,252221******%323,,,;;;;;;;;@;;#@,233111111132<,<&%%&&&",
"%%%%%.$$$,331,133***&%%33,,:,;;;;;;;;@;;#+1,---------%*-<1&%%&&&",
"%%%%$.%$:131,<,133&&%%13,,::,:;;;;;;;+;;@,2===*******%***3&%%%%%",
"%%%%$.$:111,<,,,1331,,31,:;:,:;;;;;;#+;#+,1=*=*******%**&1&%%&%%",
"%%%%.$:113,<,,,,,135353,:;;:,:;;;;;;#+;#+1,4*=**&****%**&1&%%%%%",
"%%%$.:1121,<,,,,,,13555,;;;:,>;;;;;;@+;+12:4*=*******%**&1$%%%%%",
"%%%.:1133,<,,,,,,,,1566,;;;:,>;;;;;;@+#:22=4*=*******%**&1:$%%%%",
"%%$:11231,<,,,,,,,,,1661;;;:,>:;;;;;++@,31=4*=*******&**&11:$%%%",
"%$:11231,<,,<,,,,,:,,152#;;:,>:;;;;;+++13,=4********&&**&131:$%%",
"$:113321,,,,,,,,,,,:,,55,##:,:>;;;;;++:22=*4*=******&***%1331:$$",
":115531,,,,,<,,,,,,;,,122+##,;>;;;;;++,31=*4=*******&***%13331::",
"116651,,,,,,<,,,,,,;:,,11:+@+;>;;;;;++,3,=*4-******&****%1OO#,11",
"13662,,,,<<,,,,<,,,:;,,,1,:++#::;;;#+:12=**-4******&****%1OOOO#,",
"O:551,,,<<<,,,,,,,,:;,,,,:,1,@@:;;;#+,23=**=4*****&*****%1OOOOXO",
"OX:3,,,,<<<,,,,,,:,:;:,,,:11,+@@#;;#+133&***-********&**%1OOOOXO",
"OX:2,,,,<<,,,,,,,,,:;:,,:#155,+@@;;@:2221&**==**********%1OOOOXO",
"X:11,,,,,,,<,,,,,:,:;:,:#:3553,+@##+,32231&**=*****&&**&%1OOOXOO",
":111:,,<<,,,,,,,,:,:@::#:,3:%:3,++++231##11&&*=****&&*&%:1OOOXOO",
"12221:,<<,,,,,,,,:,:@;#:,1:&%$:31,,131#OO#121&*******&%:11XXXXXX",
"332231::,,,,,,,,,:,;@#:,1:&%%$%$:3331#OOOO#121&&****&%:1233:::::",
"3235551::,,,,,,,::,;@:,1:&%%%$%$%:33:#OOOOO#122,&&&%%:1,,,,,,133",
"3,==,551:#,,,,,,:::@:,1:&%%%%$%$%$31#oOOOooO#132,&%::11,,,,,,:13",
"==**==,31:#:,,,:::#:,1:&%%%%%$%$%$3#OOoOOooOO#132,::13,,,>,,,:13",
"******==,1:#:,::##:1::&%%%%$%$%$$:1#OOOXoOOOOO#1321151>>,,,,>:13",
"*&******=%1:#::#:,1:&*&%%%%%%$$$:1#OOOOOXXOoOOO#13255,>>,,,,>:1=",
"*******&*%**:##:,1:&*&%%%%%$%$$$,##OOOOOoXXoOOOO#1351,,,,,,>::1=",
"**&&***&*%**&::,1:&&*&%%%%%$%$$:1#OOooOOOoXXoOOOO#13,,,,,,,::,=*",
"**&&***&*%&%%,,1:&%&*%%%%%%$%$:1:#OOoooOOoXXXoOOOO#13,,,,,:>:1=*",
"******&%&$%%,11:&%%&*%&%%%%$$$,1##OOooOoOOXXXXoOOOO#11,,,>::,=**",
"******&%%$%,333:%%%&*%%%%%%$$:1#O#OOOOOOOOoXXoXoOOOO#1>>>:>:,=**",
"******&%$$,3333,%%%&*%%%%%%$:1:#O#OOOOOOOOoXXXoXoOOOOX1>:,,:=***",
"******%$$,3,;,31:%%&*%%%%%%$,1#OO#OOOOooOOOoX ooXoOOOX,1,,>1=***",
"*****&%$,3,;;;,3,%%&*%%%%%$:1#OOO#OOOOooOOOoX XOXXoOOX,3>>1=****",
"****&$$,33;;;;;,1%%&%%%%%$:,1OOOO#OOoOOOOOOoX XOoXXoOX,3311=****"
};
